; ModuleID = 'add_sub.c'
source_filename = "add_sub.c"
target datalayout = "e-m:e-p270:32:32-p271:32:32-p272:64:64-i64:64-f80:128-n8:16:32:64-S128"
target triple = "x86_64-unknown-linux-gnu"

; Function Attrs: mustprogress nofree norecurse nosync nounwind readnone uwtable willreturn
define dso_local i32 @add(i32 %0, i32 %1) local_unnamed_addr #0 {
  %3 = add nsw i32 %1, %0
  ret i32 %3
}

attributes #0 = { mustprogress nofree norecurse nosync nounwind readnone uwtable willreturn "frame-pointer"="none" "min-legal-vector-width"="0" "no-trapping-math"="true" "stack-protector-buffer-size"="8" "target-cpu"="x86-64" "target-features"="+cx8,+fxsr,+mmx,+sse,+sse2,+x87" "tune-cpu"="generic" }

!llvm.module.flags = !{!0, !1}
!llvm.ident = !{!2}

!0 = !{i32 1, !"wchar_size", i32 4}
!1 = !{i32 7, !"uwtable", i32 1}
!2 = !{!"clang version 13.0.1 (git@github.com:llvm/llvm-project.git 75e33f71c2dae584b13a7d1186ae0a038ba98838)"}

